Bancos de dados em R - Leitura e operações
…
library(readr)

read_fwf(file = "Amostra_Pessoas_14.txt", 
         fwf_cols(V0001 = c(1, 2)), 
         n_max = 25)

## Parsed with column specification:
## cols(
##   V0001 = col_double()
## )

## # A tibble: 25 x 1
##    V0001
##    <dbl>
##  1    14
##  2    14
##  3    14
##  4    14
##  5    14
##  6    14
##  7    14
##  8    14
##  9    14
## 10    14
## # ... with 15 more rows
…
print(dado, max = 25)

## # A tibble: 1,000 x 3
##    UF    MUNIC    PESO
##    <chr> <chr>   <dbl>
##  1 14    00027 3.24e13
##  2 14    00027 3.24e13
##  3 14    00027 8.21e13
##  4 14    00027 8.21e13
##  5 14    00027 8.21e13
##  6 14    00027 8.21e13
##  7 14    00027 8.21e13
##  8 14    00027 8.21e13
##  9 14    00027 3.95e13
## 10 14    00027 3.95e13
## # ... with 990 more rows

Note que além de especificar as posições das variáveis fwf_cols(nome = c(início, fim)), eu fiz questão de especificar também os tipos das colunas col_types = cols_only(nome = col_tipo()), porque não quero que ele interprete os valores de UF e MUNIC como números, já que são códigos de estados e municípios e também específico que peso é uma variável númerica. Porém, Isto é insuficiente, já que PESO não está com as suas casas decimas! Veja que PESO tem 3 casas antes da vírgula e 13 casas após. Então, precisamos fazer:

dado$PESO <- dado$PESO / 10^13
print(dado, max = 25)

## # A tibble: 1,000 x 3
##    UF    MUNIC  PESO
##    <chr> <chr> <dbl>
##  1 14    00027  3.24
##  2 14    00027  3.24
##  3 14    00027  8.21
##  4 14    00027  8.21
##  5 14    00027  8.21
##  6 14    00027  8.21
##  7 14    00027  8.21
##  8 14    00027  8.21
##  9 14    00027  3.95
## 10 14    00027  3.95
## # ... with 990 more rows
…
