“Nos trinques” - Tidy data e o pacote tidyr
…
pnad <- read_fwf(
  file = "pnad2015/Dados/PES2015.gz", 
  col_positions = colunas,
  col_types = tipos
)

pnad$sexo <- factor(pnad$sexo, labels = c("Masculino", "Feminino"))

pnad

## # A tibble: 356,904 x 5
##    ano   uf    sexo      idade  peso
##    <fct> <fct> <fct>     <int> <dbl>
##  1 2015  11    Masculino    23   270
##  2 2015  11    Feminino     23   270
##  3 2015  11    Feminino     35   270
##  4 2015  11    Masculino    34   270
##  5 2015  11    Feminino     11   270
##  6 2015  11    Feminino      7   270
##  7 2015  11    Feminino      4   271
##  8 2015  11    Feminino     18   270
##  9 2015  11    Masculino    46   271
## 10 2015  11    Feminino     81   270
## # ... with 356,894 more rows
…
library(dplyr)

(pir_et <- pnad %>% 
  mutate(idade2 = cut(idade, seq(0, max(idade), 5), right = FALSE)) %>% 
  group_by(sexo, idade2) %>% 
  count(wt = peso)
)

## Warning: Factor `idade2` contains implicit NA, consider using
## `forcats::fct_explicit_na`

## Warning: Factor `idade2` contains implicit NA, consider using
## `forcats::fct_explicit_na`

## # A tibble: 46 x 3
## # Groups:   sexo, idade2 [46]
##    sexo      idade2        n
##    <fct>     <fct>     <dbl>
##  1 Masculino [0,5)   6629613
##  2 Masculino [5,10)  7288827
##  3 Masculino [10,15) 8103415
##  4 Masculino [15,20) 8911238
##  5 Masculino [20,25) 7955353
##  6 Masculino [25,30) 7526188
##  7 Masculino [30,35) 7898995
##  8 Masculino [35,40) 7563610
##  9 Masculino [40,45) 6981243
## 10 Masculino [45,50) 6492133
## # ... with 36 more rows

Note que após essas transformações, ficamos com uma coluna n que tem o número de pessoas nesses grupos de idade e sexo. Para o próximo passo, seria mais fácil se os homens estivessem contados em uma coluna, e as mulheres, em outra.

(pir_et <- pivot_wider(
  data = pir_et,
  names_from = sexo,
  values_from = n
))

## Warning: Factor `idade2` contains implicit NA, consider using
## `forcats::fct_explicit_na`

## # A tibble: 24 x 3
## # Groups:   idade2 [24]
##    idade2  Masculino Feminino
##    <fct>       <dbl>    <dbl>
##  1 [0,5)     6629613  6311845
##  2 [5,10)    7288827  6972994
##  3 [10,15)   8103415  7761034
##  4 [15,20)   8911238  8567731
##  5 [20,25)   7955353  7635507
##  6 [25,30)   7526188  7749389
##  7 [30,35)   7898995  8381687
##  8 [35,40)   7563610  8194329
##  9 [40,45)   6981243  7555175
## 10 [45,50)   6492133  7115296
## # ... with 14 more rows

Moleza! pivot_wider() pegou célula que tinha o valor “Masculino” na variável sexo e colocou numa nova coluna com esse nome, e cada célula que tinha o valor “Feminino” na variável sexo e colocou na coluna “Feminino”. Como em outras funções, começamos especificamos um banco de dados, depois, a coluna de onde saem os “nomes” (Masculino e Feminino) e a coluna de onde saem os valores da célula (n).

Continuando pra nossa pirâmide etária, precisamos que a coluna dos homens esteja negativa e que ambas as colunas estejam em proporção do total. Fazemos isso com mutate(), lembre que é preciso desagrupar o banco!!!

total <- with(pir_et, sum(Masculino, na.rm = TRUE) + sum(Feminino, na.rm = TRUE))

(pir_et <- pir_et %>% 
  ungroup() %>% 
  mutate(Masculino2 = (Masculino / total) * -1,
         Feminino2 = Feminino / total))

## # A tibble: 24 x 5
##    idade2  Masculino Feminino Masculino2 Feminino2
##    <fct>       <dbl>    <dbl>      <dbl>     <dbl>
##  1 [0,5)     6629613  6311845    -0.0324    0.0308
##  2 [5,10)    7288827  6972994    -0.0356    0.0340
##  3 [10,15)   8103415  7761034    -0.0396    0.0379
##  4 [15,20)   8911238  8567731    -0.0435    0.0418
##  5 [20,25)   7955353  7635507    -0.0388    0.0373
##  6 [25,30)   7526188  7749389    -0.0367    0.0378
##  7 [30,35)   7898995  8381687    -0.0386    0.0409
##  8 [35,40)   7563610  8194329    -0.0369    0.0400
##  9 [40,45)   6981243  7555175    -0.0341    0.0369
## 10 [45,50)   6492133  7115296    -0.0317    0.0347
## # ... with 14 more rows
…
Mas há um jeito um pouco mais elegante de montar esta pirâmide. O resultado final deve ser muito parecido, mas a gente economiza um pouco de código no ggplot. Pra isso, a gente precisa recompor o nosso banco de dados em formato “longo”, com as variáveis Masculino2 e Feminino2 reunidas numa coluna só, que vamos chamar de sexo2. Pra fazer isso, precisaremos aplicar a irmã da pivot_wider().

(pir_et2 <- pivot_longer(
  data = pir_et,
  cols = c(Masculino2, Feminino2),
  names_to = "sexo2",
  values_to = "n"
))

## # A tibble: 48 x 5
##    idade2  Masculino Feminino sexo2            n
##    <fct>       <dbl>    <dbl> <chr>        <dbl>
##  1 [0,5)     6629613  6311845 Masculino2 -0.0324
##  2 [0,5)     6629613  6311845 Feminino2   0.0308
##  3 [5,10)    7288827  6972994 Masculino2 -0.0356
##  4 [5,10)    7288827  6972994 Feminino2   0.0340
##  5 [10,15)   8103415  7761034 Masculino2 -0.0396
##  6 [10,15)   8103415  7761034 Feminino2   0.0379
##  7 [15,20)   8911238  8567731 Masculino2 -0.0435
##  8 [15,20)   8911238  8567731 Feminino2   0.0418
##  9 [20,25)   7955353  7635507 Masculino2 -0.0388
## 10 [20,25)   7955353  7635507 Feminino2   0.0373
## # ... with 38 more rows
…
