Transformando dados com dplyr
…
Vamos precisar de um banco de dados de treino chamado nycflights13, que contém registros administrativos da operação dos aeroportos da cidade de Nova Iorque em 2013. Caso você ainda não tenha, aproveite e faça a instalação do dplyr.

install.packages(c("nycflights13", "dplyr"))

Agora carregue os dois pacotes e vamos dar uma olhada no formato do banco de dados flights.

library(nycflights13)
library(dplyr)

Note que o dplyr informa uma mensagem de aviso ao ser carregado, de que as funções filter(), lag(), etc, estão “mascaradas” pelo pacote. Isto significa que se você quiser usar estas funções a partir desse momento, você vai ter que passar o “nome completo” delas, stats::filter(), stats::lag(), etc.

flights

## # A tibble: 336,776 x 19
##     year month   day dep_time sched_dep_time dep_delay arr_time sched_arr_time arr_delay carrier
##    <int> <int> <int>    <int>          <int>     <dbl>    <int>          <int>     <dbl> <chr>  
##  1  2013     1     1      517            515         2      830            819        11 UA     
##  2  2013     1     1      533            529         4      850            830        20 UA     
##  3  2013     1     1      542            540         2      923            850        33 AA     
##  4  2013     1     1      544            545        -1     1004           1022       -18 B6     
##  5  2013     1     1      554            600        -6      812            837       -25 DL     
##  6  2013     1     1      554            558        -4      740            728        12 UA     
##  7  2013     1     1      555            600        -5      913            854        19 B6     
##  8  2013     1     1      557            600        -3      709            723       -14 EV     
##  9  2013     1     1      557            600        -3      838            846        -8 B6     
## 10  2013     1     1      558            600        -2      753            745         8 AA     
## # ... with 336,766 more rows, and 9 more variables: flight <int>, tailnum <chr>, origin <chr>,
## #   dest <chr>, air_time <dbl>, distance <dbl>, hour <dbl>, minute <dbl>, time_hour <dttm>
…
1. O Primeiro argumento é um data.frame
2. Os argumentos seguintes descrevem o que deve ser feito com este
data.frame
3. O resultado é sempre um data.frame modificado

Isto permite que você crie cadeias complexas de operações utilizando poucos passos.

“Filtros” de observações com filter()

filter() realiza corte “horizontais” no banco de dados, selecionando os casos de acordo com testes lógicos nas variáveis do banco. Digamos, por exemplo, que queiramos ver apenas os voos realizados no dia 01/01/2013.

filter(flights, month == 1, day == 1)

## # A tibble: 842 x 19
##     year month   day dep_time sched_dep_time dep_delay arr_time sched_arr_time arr_delay carrier
##    <int> <int> <int>    <int>          <int>     <dbl>    <int>          <int>     <dbl> <chr>  
##  1  2013     1     1      517            515         2      830            819        11 UA     
##  2  2013     1     1      533            529         4      850            830        20 UA     
##  3  2013     1     1      542            540         2      923            850        33 AA     
##  4  2013     1     1      544            545        -1     1004           1022       -18 B6     
##  5  2013     1     1      554            600        -6      812            837       -25 DL     
##  6  2013     1     1      554            558        -4      740            728        12 UA     
##  7  2013     1     1      555            600        -5      913            854        19 B6     
##  8  2013     1     1      557            600        -3      709            723       -14 EV     
##  9  2013     1     1      557            600        -3      838            846        -8 B6     
## 10  2013     1     1      558            600        -2      753            745         8 AA     
## # ... with 832 more rows, and 9 more variables: flight <int>, tailnum <chr>, origin <chr>,
## #   dest <chr>, air_time <dbl>, distance <dbl>, hour <dbl>, minute <dbl>, time_hour <dttm>

Ao realizar o filtro, dplyr gera um novo data.frame que contém apenas as observações filtradas. O novo data.frame não modifica o anterior, se você quiser salvar o resultado, é necessário fazê-lo separadamente:

jan1 <- filter(flights, month == 1, day == 1)

Uma dica para o caso de você querer tanto salvar um resultado numa variável quanto imprimí-lo no console, é colocar parenteses em torno de toda a operação. Veja este segundo exemplo para os voos no dia do Natal.

(dec25 <- filter(flights, month == 12, day == 25))

## # A tibble: 719 x 19
##     year month   day dep_time sched_dep_time dep_delay arr_time sched_arr_time arr_delay carrier
##    <int> <int> <int>    <int>          <int>     <dbl>    <int>          <int>     <dbl> <chr>  
##  1  2013    12    25      456            500        -4      649            651        -2 US     
##  2  2013    12    25      524            515         9      805            814        -9 UA     
##  3  2013    12    25      542            540         2      832            850       -18 AA     
##  4  2013    12    25      546            550        -4     1022           1027        -5 B6     
##  5  2013    12    25      556            600        -4      730            745       -15 AA     
##  6  2013    12    25      557            600        -3      743            752        -9 DL     
##  7  2013    12    25      557            600        -3      818            831       -13 DL     
##  8  2013    12    25      559            600        -1      855            856        -1 B6     
##  9  2013    12    25      559            600        -1      849            855        -6 B6     
## 10  2013    12    25      600            600         0      850            846         4 B6     
## # ... with 709 more rows, and 9 more variables: flight <int>, tailnum <chr>, origin <chr>,
## #   dest <chr>, air_time <dbl>, distance <dbl>, hour <dbl>, minute <dbl>, time_hour <dttm>
…
Operações Lógicas

Veja por exemplo os voos que saem em novembro OU dezembro.

filter(flights, month == 11 | month == 12)

## # A tibble: 55,403 x 19
##     year month   day dep_time sched_dep_time dep_delay arr_time sched_arr_time arr_delay carrier
##    <int> <int> <int>    <int>          <int>     <dbl>    <int>          <int>     <dbl> <chr>  
##  1  2013    11     1        5           2359         6      352            345         7 B6     
##  2  2013    11     1       35           2250       105      123           2356        87 B6     
##  3  2013    11     1      455            500        -5      641            651       -10 US     
##  4  2013    11     1      539            545        -6      856            827        29 UA     
##  5  2013    11     1      542            545        -3      831            855       -24 AA     
##  6  2013    11     1      549            600       -11      912            923       -11 UA     
##  7  2013    11     1      550            600       -10      705            659         6 US     
##  8  2013    11     1      554            600        -6      659            701        -2 US     
##  9  2013    11     1      554            600        -6      826            827        -1 DL     
## 10  2013    11     1      554            600        -6      749            751        -2 DL     
## # ... with 55,393 more rows, and 9 more variables: flight <int>, tailnum <chr>, origin <chr>,
## #   dest <chr>, air_time <dbl>, distance <dbl>, hour <dbl>, minute <dbl>, time_hour <dttm>

Você não pode escrever filter(flights, month == (11 | 12)), pois o R vai interpretar isso incorretamente. Se você precisar utilizar múltiplos valores, prefira x %in% y.

nov_dez <- filter(flights, month %in% c(11, 12))

Se você dominar bem este tipo de lógica booleana, você pode simplificar alguns tipos de operações. As duas operações abaixo são equivalentes.

filter(flights, !(arr_delay > 120 | dep_delay > 120))

## # A tibble: 316,050 x 19
##     year month   day dep_time sched_dep_time dep_delay arr_time sched_arr_time arr_delay carrier
##    <int> <int> <int>    <int>          <int>     <dbl>    <int>          <int>     <dbl> <chr>  
##  1  2013     1     1      517            515         2      830            819        11 UA     
##  2  2013     1     1      533            529         4      850            830        20 UA     
##  3  2013     1     1      542            540         2      923            850        33 AA     
##  4  2013     1     1      544            545        -1     1004           1022       -18 B6     
##  5  2013     1     1      554            600        -6      812            837       -25 DL     
##  6  2013     1     1      554            558        -4      740            728        12 UA     
##  7  2013     1     1      555            600        -5      913            854        19 B6     
##  8  2013     1     1      557            600        -3      709            723       -14 EV     
##  9  2013     1     1      557            600        -3      838            846        -8 B6     
## 10  2013     1     1      558            600        -2      753            745         8 AA     
## # ... with 316,040 more rows, and 9 more variables: flight <int>, tailnum <chr>, origin <chr>,
## #   dest <chr>, air_time <dbl>, distance <dbl>, hour <dbl>, minute <dbl>, time_hour <dttm>

filter(flights, arr_delay <= 120, dep_delay <= 120)

## # A tibble: 316,050 x 19
##     year month   day dep_time sched_dep_time dep_delay arr_time sched_arr_time arr_delay carrier
##    <int> <int> <int>    <int>          <int>     <dbl>    <int>          <int>     <dbl> <chr>  
##  1  2013     1     1      517            515         2      830            819        11 UA     
##  2  2013     1     1      533            529         4      850            830        20 UA     
##  3  2013     1     1      542            540         2      923            850        33 AA     
##  4  2013     1     1      544            545        -1     1004           1022       -18 B6     
##  5  2013     1     1      554            600        -6      812            837       -25 DL     
##  6  2013     1     1      554            558        -4      740            728        12 UA     
##  7  2013     1     1      555            600        -5      913            854        19 B6     
##  8  2013     1     1      557            600        -3      709            723       -14 EV     
##  9  2013     1     1      557            600        -3      838            846        -8 B6     
## 10  2013     1     1      558            600        -2      753            745         8 AA     
## # ... with 316,040 more rows, and 9 more variables: flight <int>, tailnum <chr>, origin <chr>,
## #   dest <chr>, air_time <dbl>, distance <dbl>, hour <dbl>, minute <dbl>, time_hour <dttm>
…
filter(df, is.na(x) | x > 1)

## # A tibble: 2 x 1
##       x
##   <dbl>
## 1    NA
## 2     3

Ordene os dados com arrange()

Arrange funciona de forma parecida com filter(), só que ao invés de selecionar casos, ele ordena o banco de acordo com as variáveis selecionadas. Você pode informar várias variáveis, e ele vai ordenar o banco de acordo com a primeira, usando as variáveis subsequentes para ir “desempatando” os casos.

arrange(flights, year, month, day)

## # A tibble: 336,776 x 19
##     year month   day dep_time sched_dep_time dep_delay arr_time sched_arr_time arr_delay carrier
##    <int> <int> <int>    <int>          <int>     <dbl>    <int>          <int>     <dbl> <chr>  
##  1  2013     1     1      517            515         2      830            819        11 UA     
##  2  2013     1     1      533            529         4      850            830        20 UA     
##  3  2013     1     1      542            540         2      923            850        33 AA     
##  4  2013     1     1      544            545        -1     1004           1022       -18 B6     
##  5  2013     1     1      554            600        -6      812            837       -25 DL     
##  6  2013     1     1      554            558        -4      740            728        12 UA     
##  7  2013     1     1      555            600        -5      913            854        19 B6     
##  8  2013     1     1      557            600        -3      709            723       -14 EV     
##  9  2013     1     1      557            600        -3      838            846        -8 B6     
## 10  2013     1     1      558            600        -2      753            745         8 AA     
## # ... with 336,766 more rows, and 9 more variables: flight <int>, tailnum <chr>, origin <chr>,
## #   dest <chr>, air_time <dbl>, distance <dbl>, hour <dbl>, minute <dbl>, time_hour <dttm>

O padrão é ordem ascendente. Se você quiser organizar em ordem descendente, use a função desc()

arrange(flights, desc(dep_delay))

## # A tibble: 336,776 x 19
##     year month   day dep_time sched_dep_time dep_delay arr_time sched_arr_time arr_delay carrier
##    <int> <int> <int>    <int>          <int>     <dbl>    <int>          <int>     <dbl> <chr>  
##  1  2013     1     9      641            900      1301     1242           1530      1272 HA     
##  2  2013     6    15     1432           1935      1137     1607           2120      1127 MQ     
##  3  2013     1    10     1121           1635      1126     1239           1810      1109 MQ     
##  4  2013     9    20     1139           1845      1014     1457           2210      1007 AA     
##  5  2013     7    22      845           1600      1005     1044           1815       989 MQ     
##  6  2013     4    10     1100           1900       960     1342           2211       931 DL     
##  7  2013     3    17     2321            810       911      135           1020       915 DL     
##  8  2013     6    27      959           1900       899     1236           2226       850 DL     
##  9  2013     7    22     2257            759       898      121           1026       895 DL     
## 10  2013    12     5      756           1700       896     1058           2020       878 AA     
## # ... with 336,766 more rows, and 9 more variables: flight <int>, tailnum <chr>, origin <chr>,
## #   dest <chr>, air_time <dbl>, distance <dbl>, hour <dbl>, minute <dbl>, time_hour <dttm>
…
## # A tibble: 3 x 1
##       x
##   <dbl>
## 1     5
## 2     2
## 3    NA

Selecione variáveis com select()

Outra operação cotidiana é a seleção de algumas variáveis de um banco maior, o que podemos fazer com select(). Como de costume, primeiro, especificamos o banco, depois, escolhemos as variáveis pelo nome.

select(flights, year, month, day)

## # A tibble: 336,776 x 3
##     year month   day
##    <int> <int> <int>
##  1  2013     1     1
##  2  2013     1     1
##  3  2013     1     1
##  4  2013     1     1
##  5  2013     1     1
##  6  2013     1     1
##  7  2013     1     1
##  8  2013     1     1
##  9  2013     1     1
## 10  2013     1     1
## # ... with 336,766 more rows

O resultado é um banco que contém apenas as variáveis selecionadas. select() aceita uma série de abreviações que facilitam a seleção de variáveis. Como x:y (x até y) e -(x:y) (exclusão das variáveis de x até y).

select(flights, year:day)

## # A tibble: 336,776 x 3
##     year month   day
##    <int> <int> <int>
##  1  2013     1     1
##  2  2013     1     1
##  3  2013     1     1
##  4  2013     1     1
##  5  2013     1     1
##  6  2013     1     1
##  7  2013     1     1
##  8  2013     1     1
##  9  2013     1     1
## 10  2013     1     1
## # ... with 336,766 more rows

select(flights, -(year:day))

## # A tibble: 336,776 x 16
##    dep_time sched_dep_time dep_delay arr_time sched_arr_time arr_delay carrier flight tailnum
##       <int>          <int>     <dbl>    <int>          <int>     <dbl> <chr>    <int> <chr>  
##  1      517            515         2      830            819        11 UA        1545 N14228 
##  2      533            529         4      850            830        20 UA        1714 N24211 
##  3      542            540         2      923            850        33 AA        1141 N619AA 
##  4      544            545        -1     1004           1022       -18 B6         725 N804JB 
##  5      554            600        -6      812            837       -25 DL         461 N668DN 
##  6      554            558        -4      740            728        12 UA        1696 N39463 
##  7      555            600        -5      913            854        19 B6         507 N516JB 
##  8      557            600        -3      709            723       -14 EV        5708 N829AS 
##  9      557            600        -3      838            846        -8 B6          79 N593JB 
## 10      558            600        -2      753            745         8 AA         301 N3ALAA 
## # ... with 336,766 more rows, and 7 more variables: origin <chr>, dest <chr>, air_time <dbl>,
## #   distance <dbl>, hour <dbl>, minute <dbl>, time_hour <dttm>

select() vem com várias funções auxiliares para facilitar operações comuns:

- `starts_with("abc")` seleciona variáveis que começam com "abc"
- `ends_with("xyz")` termina em "xyz"
- `contains("ijk")` contém "ijk" no nome.
- `matches("(.)\\1")` casos que correspondem a uma "expressão regular", um
tópico um pouco mais avançado de strings.
- `num_range("x", 1:3)` seleciona variáveis com o nome `x1`, `x2` ou `x3`

Você pode utilizar select() pra renomear as variáveis do banco, mas é meio ruim, porque select exclui todas as variáveis que você não mencionar explicitamente. Por isso, existe rename().

select(flights, tail_num = tailnum)

## # A tibble: 336,776 x 1
##    tail_num
##    <chr>   
##  1 N14228  
##  2 N24211  
##  3 N619AA  
##  4 N804JB  
##  5 N668DN  
##  6 N39463  
##  7 N516JB  
##  8 N829AS  
##  9 N593JB  
## 10 N3ALAA  
## # ... with 336,766 more rows

rename(flights, tail_num = tailnum)

## # A tibble: 336,776 x 19
##     year month   day dep_time sched_dep_time dep_delay arr_time sched_arr_time arr_delay carrier
##    <int> <int> <int>    <int>          <int>     <dbl>    <int>          <int>     <dbl> <chr>  
##  1  2013     1     1      517            515         2      830            819        11 UA     
##  2  2013     1     1      533            529         4      850            830        20 UA     
##  3  2013     1     1      542            540         2      923            850        33 AA     
##  4  2013     1     1      544            545        -1     1004           1022       -18 B6     
##  5  2013     1     1      554            600        -6      812            837       -25 DL     
##  6  2013     1     1      554            558        -4      740            728        12 UA     
##  7  2013     1     1      555            600        -5      913            854        19 B6     
##  8  2013     1     1      557            600        -3      709            723       -14 EV     
##  9  2013     1     1      557            600        -3      838            846        -8 B6     
## 10  2013     1     1      558            600        -2      753            745         8 AA     
## # ... with 336,766 more rows, and 9 more variables: flight <int>, tail_num <chr>, origin <chr>,
## #   dest <chr>, air_time <dbl>, distance <dbl>, hour <dbl>, minute <dbl>, time_hour <dttm>
…
