Tidy Data - Respostas do exercício
…
## Warning: Factor `idade2` contains implicit NA, consider using
## `forcats::fct_explicit_na`

(pir_et <- pir_et %>% 
  group_by(uf) %>% 
  summarise(total = sum(Masculino, na.rm = T) + sum(Feminino, na.rm = T)) %>% 
  left_join(pir_et))

## Joining, by = "uf"

## # A tibble: 569 x 5
##    uf      total idade2  Masculino Feminino
##    <fct>   <dbl> <fct>       <dbl>    <dbl>
##  1 11    1772941 [0,5)       72406    58635
##  2 11    1772941 [5,10)      75120    68633
##  3 11    1772941 [10,15)     76727    72399
##  4 11    1772941 [15,20)     87809    76192
##  5 11    1772941 [20,25)     68894    74298
##  6 11    1772941 [25,30)     72406    74843
##  7 11    1772941 [30,35)     69445    69702
##  8 11    1772941 [35,40)     68632    82134
##  9 11    1772941 [40,45)     62152    64842
## 10 11    1772941 [45,50)     57817    58364
## # ... with 559 more rows

(pir_et <- pir_et %>% 
  ungroup() %>% 
  mutate(Masculino2 = (Masculino / total) * -1,
         Feminino2 = Feminino / total))

## # A tibble: 569 x 7
##    uf      total idade2  Masculino Feminino Masculino2 Feminino2
##    <fct>   <dbl> <fct>       <dbl>    <dbl>      <dbl>     <dbl>
##  1 11    1772941 [0,5)       72406    58635    -0.0408    0.0331
##  2 11    1772941 [5,10)      75120    68633    -0.0424    0.0387
##  3 11    1772941 [10,15)     76727    72399    -0.0433    0.0408
##  4 11    1772941 [15,20)     87809    76192    -0.0495    0.0430
##  5 11    1772941 [20,25)     68894    74298    -0.0389    0.0419
##  6 11    1772941 [25,30)     72406    74843    -0.0408    0.0422
##  7 11    1772941 [30,35)     69445    69702    -0.0392    0.0393
##  8 11    1772941 [35,40)     68632    82134    -0.0387    0.0463
##  9 11    1772941 [40,45)     62152    64842    -0.0351    0.0366
## 10 11    1772941 [45,50)     57817    58364    -0.0326    0.0329
## # ... with 559 more rows

(pir_et2 <- pivot_longer(
  data = pir_et,
  cols = c(Masculino2, Feminino2),
  names_to = "sexo2",
  values_to = "n"
))

## # A tibble: 1,138 x 7
##    uf      total idade2  Masculino Feminino sexo2            n
##    <fct>   <dbl> <fct>       <dbl>    <dbl> <chr>        <dbl>
##  1 11    1772941 [0,5)       72406    58635 Masculino2 -0.0408
##  2 11    1772941 [0,5)       72406    58635 Feminino2   0.0331
##  3 11    1772941 [5,10)      75120    68633 Masculino2 -0.0424
##  4 11    1772941 [5,10)      75120    68633 Feminino2   0.0387
##  5 11    1772941 [10,15)     76727    72399 Masculino2 -0.0433
##  6 11    1772941 [10,15)     76727    72399 Feminino2   0.0408
##  7 11    1772941 [15,20)     87809    76192 Masculino2 -0.0495
##  8 11    1772941 [15,20)     87809    76192 Feminino2   0.0430
##  9 11    1772941 [20,25)     68894    74298 Masculino2 -0.0389
## 10 11    1772941 [20,25)     68894    74298 Feminino2   0.0419
## # ... with 1,128 more rows
…
